Visual Analytics and Application - Hands-on Exercise 4b: Visualising Statistical Analysis
…
3.5 Significant Test of Association (Dependence) : ggbarstats() methods

In the code chunk below, the Maths scores is binned into a 4-class variable by using cut().

We will create a new dataframe exam1 similar to exam df but with extra column called ‘MATHS_bins’.

exam1 <- exam %>% 
  mutate(MATHS_bins = 
           cut(MATHS, 
               breaks = c(0,60,75,85,100))
)

exam1

# A tibble: 322 × 8
   ID         CLASS GENDER RACE    ENGLISH MATHS SCIENCE MATHS_bins
   <chr>      <fct> <fct>  <fct>     <dbl> <dbl>   <dbl> <fct>     
 1 Student321 3I    Male   Malay        21     9      15 (0,60]    
 2 Student305 3I    Female Malay        24    22      16 (0,60]    
 3 Student289 3H    Male   Chinese      26    16      16 (0,60]    
 4 Student227 3F    Male   Chinese      27    77      31 (75,85]   
 5 Student318 3I    Male   Malay        27    11      25 (0,60]    
 6 Student306 3I    Female Malay        31    16      16 (0,60]    
 7 Student313 3I    Male   Chinese      31    21      25 (0,60]    
 8 Student316 3I    Male   Malay        31    18      27 (0,60]    
 9 Student312 3I    Male   Malay        33    19      15 (0,60]    
10 Student297 3H    Male   Indian       34    49      37 (0,60]    
# ℹ 312 more rows
…
