Visual Analytics and Application - Take-home Exercise 3: Be Weatherwise or Otherwise
…
mean_temperature_a_c, maximum_temperature_a_c, and minimum_temperature_a_c

The records for 2023 are shown in the second set, while the rest of the years are recorded in the first set. To merge the results, we can use coalesce() function to replace the missing values from the first set of variables with the records from the second set.

# Patch in results using the second set of temperature variables
data$mean_temperature_c <- coalesce(data$mean_temperature_c, data$mean_temperature_a_c)
data$maximum_temperature_c <- coalesce(data$maximum_temperature_c, data$maximum_temperature_a_c)
data$minimum_temperature_c <- coalesce(data$minimum_temperature_c, data$minimum_temperature_a_c)

# Remove the now-redundant second set of temperature variables
data %>% 
  select(-c("mean_temperature_a_c", "maximum_temperature_a_c", "minimum_temperature_a_c"))

# A tibble: 549 × 13
   station year  month day   daily_rainfall_total_mm highest_30_min_rainfall_mm
   <chr>   <chr> <chr> <chr> <chr>                   <chr>                     
 1 Tengah  1993  6     1     6.5                     "\u0097"                  
 2 Tengah  1993  6     2     0                       "\u0097"                  
 3 Tengah  1993  6     3     0                       "\u0097"                  
 4 Tengah  1993  6     4     2.2                     "\u0097"                  
 5 Tengah  1993  6     5     8                       "\u0097"                  
 6 Tengah  1993  6     6     55.1                    "\u0097"                  
 7 Tengah  1993  6     7     0.5                     "\u0097"                  
 8 Tengah  1993  6     8     0                       "\u0097"                  
 9 Tengah  1993  6     9     0                       "\u0097"                  
10 Tengah  1993  6     10    0                       "\u0097"                  
# ℹ 539 more rows
# ℹ 7 more variables: highest_60_min_rainfall_mm <chr>,
#   highest_120_min_rainfall_mm <chr>, mean_temperature_c <chr>,
#   maximum_temperature_c <chr>, minimum_temperature_c <chr>,
#   mean_wind_speed_km_h <chr>, max_wind_speed_km_h <chr>
…
