Visual Analytics and Application - Take-home Exercise 1:
…
[1] 87

The variables with missing values are: Immigration_Status, Have_Comp, Have_EduSW, Have_Internet, Num_ICT, Edu_Father, Edu_Mother, Time_HW_Reading, Time_HW_Math, and Time_HW_Science.

drop_na() drops rows where any column specified contains a missing value.

stu_SG_filtered <- drop_na(stu_SG_filtered,
                           # Drops rows where either of these columns have NAs
                           Immigration_Status, Have_Comp, Have_EduSW, Have_Internet, Num_ICT, Edu_Father,
                           Edu_Mother, Time_HW_Reading, Time_HW_Math, Time_HW_Science)

# Here's what the dataset looks like so far
stu_SG_filtered

# A tibble: 6,160 × 44
      SchID Gender Immigration_Status Occupation_Status_Father
      <dbl>  <dbl>              <dbl> <chr>                   
 1 70200052      1                  1 9701                    
 2 70200134      2                  1 31                      
 3 70200112      2                  1 9701                    
 4 70200004      2                  1 41                      
 5 70200152      1                  1 23                      
 6 70200043      1                  3 9701                    
 7 70200049      2                  1 11                      
 8 70200107      2                  3 23                      
 9 70200012      1                  1 1                       
10 70200061      2                  1 34                      
# ℹ 6,150 more rows
# ℹ 40 more variables: Occupation_Status_Mother <chr>, Have_Comp <dbl>,
#   Have_EduSW <dbl>, Have_Internet <dbl>, Num_ICT <dbl>, Edu_Mother <dbl>,
#   Edu_Father <dbl>, Time_HW_Math <dbl>, Time_HW_Reading <dbl>,
#   Time_HW_Science <dbl>, PV1MATH <dbl>, PV2MATH <dbl>, PV3MATH <dbl>,
#   PV4MATH <dbl>, PV5MATH <dbl>, PV6MATH <dbl>, PV7MATH <dbl>, PV8MATH <dbl>,
#   PV9MATH <dbl>, PV10MATH <dbl>, PV1READ <dbl>, PV2READ <dbl>, …
…
read_sav of the haven package lets us read SPSS data (in .sav data format) into RStudio.

sch <- read_sav("data/CY08MSP_SCH_QQQ.sav")

sch

# A tibble: 21,629 × 432
   CNT         CNTRYID CNTSCHID CYC   NatCen     STRATUM    SUBNATIO   REGION   
   <chr+lbl>   <dbl+l>    <dbl> <chr> <chr+lbl>  <chr+lbl>  <chr+lbl>  <dbl+lbl>
 1 ALB [Alban… 8 [Alb…   800001 08MS  000… [Alb… ALB… [ALB… 008… [Alb… 800 [Alb…
 2 ALB [Alban… 8 [Alb…   800002 08MS  000… [Alb… ALB… [ALB… 008… [Alb… 800 [Alb…
 3 ALB [Alban… 8 [Alb…   800003 08MS  000… [Alb… ALB… [ALB… 008… [Alb… 800 [Alb…
 4 ALB [Alban… 8 [Alb…   800004 08MS  000… [Alb… ALB… [ALB… 008… [Alb… 800 [Alb…
 5 ALB [Alban… 8 [Alb…   800005 08MS  000… [Alb… ALB… [ALB… 008… [Alb… 800 [Alb…
 6 ALB [Alban… 8 [Alb…   800006 08MS  000… [Alb… ALB… [ALB… 008… [Alb… 800 [Alb…
 7 ALB [Alban… 8 [Alb…   800007 08MS  000… [Alb… ALB… [ALB… 008… [Alb… 800 [Alb…
 8 ALB [Alban… 8 [Alb…   800008 08MS  000… [Alb… ALB… [ALB… 008… [Alb… 800 [Alb…
 9 ALB [Alban… 8 [Alb…   800009 08MS  000… [Alb… ALB… [ALB… 008… [Alb… 800 [Alb…
10 ALB [Alban… 8 [Alb…   800010 08MS  000… [Alb… ALB… [ALB… 008… [Alb… 800 [Alb…
# ℹ 21,619 more rows
# ℹ 424 more variables: OECD <dbl+lbl>, ADMINMODE <dbl+lbl>,
#   LANGTEST_QQQ <dbl+lbl>, SC001Q01TA <dbl+lbl>, SC013Q01TA <dbl+lbl>,
#   SC014Q01TA <dbl+lbl>, SC016Q01TA <dbl+lbl>, SC016Q02TA <dbl+lbl>,
#   SC016Q03TA <dbl+lbl>, SC016Q04TA <dbl+lbl>, SC011Q01TA <dbl+lbl>,
#   SC002Q01TA <dbl+lbl>, SC002Q02TA <dbl+lbl>, SC211Q01JA <dbl+lbl>,
#   SC211Q02JA <dbl+lbl>, SC211Q03JA <dbl+lbl>, SC211Q04JA <dbl+lbl>, …
…
